{
   "page":1,
   "per_page":10,
   "total":573,
   "total_pages":58,
   "data":[
      {
         "Title":"Harry Potter and the Deathly Hallows: Part 2",
         "Year":2011,
         "imdbID":"tt1201607"
      },
      {
         "Title":"Harry Potter and the Sorcerer's Stone",
         "Year":2001,
         "imdbID":"tt0241527"
      },
      {
         "Title":"Harry Potter and the Chamber of Secrets",
         "Year":2002,
         "imdbID":"tt0295297"
      },
      {
         "Title":"Harry Potter and the Goblet of Fire",
         "Year":2005,
         "imdbID":"tt0330373"
      },
      {
         "Title":"Harry Potter and the Prisoner of Azkaban",
         "Year":2004,
         "imdbID":"tt0304141"
      },
      {
         "Title":"Harry Potter and the Order of the Phoenix",
         "Year":2007,
         "imdbID":"tt0373889"
      },
      {
         "Title":"Harry Potter and the Deathly Hallows: Part 1",
         "Year":2010,
         "imdbID":"tt0926084"
      },
      {
         "Title":"Harry Potter and the Half-Blood Prince",
         "Year":2009,
         "imdbID":"tt0417741"
      },
      {
         "Title":"When Harry Met Sally...",
         "Year":1989,
         "imdbID":"tt0098635"
      },
      {
         "Title":"Dirty Harry",
         "Year":1971,
         "imdbID":"tt0066999"
      }
   ]
}